%YAML 1.1
%TAG !u! tag:unity3d.com,2011:
--- !u!114 &11400000
MonoBehaviour:
  m_ObjectHideFlags: 0
  m_PrefabParentObject: {fileID: 0}
  m_PrefabInternal: {fileID: 0}
  m_GameObject: {fileID: 0}
  m_Enabled: 1
  m_EditorHideFlags: 0
  m_Script: {fileID: 11500000, guid: b8f1cbcf4591a7540bef286981c90bd0, type: 3}
  m_Name: Tutorial2
  m_EditorClassIdentifier: 
  dialogs:
  - person: 1
    picture: {fileID: 21300000, guid: e1425fe25dcc75744a8540d77046b160, type: 3}
    message: Watch out! An enemy!
    answers: []
    firstOption: {fileID: 0}
    secondOption: {fileID: 0}
    openStore: 0
  - person: 0
    picture: {fileID: 21300000, guid: b964b945e2631a84cb134d71f56cc819, type: 3}
    message: How can I beat it?
    answers: []
    firstOption: {fileID: 0}
    secondOption: {fileID: 0}
    openStore: 0
  - person: 1
    picture: {fileID: 21300000, guid: e1425fe25dcc75744a8540d77046b160, type: 3}
    message: You can destroy it by running to it and pressing your LEFT MOUSE BUTTON!
    answers: []
    firstOption: {fileID: 0}
    secondOption: {fileID: 0}
    openStore: 0
  - person: 1
    picture: {fileID: 21300000, guid: e1425fe25dcc75744a8540d77046b160, type: 3}
    message: Be careful though. They can fight back. You can block with the RIGHT
      MOUSE BUTOTN.
    answers: []
    firstOption: {fileID: 0}
    secondOption: {fileID: 0}
    openStore: 0
