%YAML 1.1
%TAG !u! tag:unity3d.com,2011:
--- !u!74 &7400000
AnimationClip:
  m_ObjectHideFlags: 0
  m_PrefabParentObject: {fileID: 0}
  m_PrefabInternal: {fileID: 0}
  m_Name: CameraQuit
  serializedVersion: 6
  m_Legacy: 0
  m_Compressed: 0
  m_UseHighQualityCurve: 1
  m_RotationCurves:
  - curve:
      serializedVersion: 2
      m_Curve:
      - time: 0
        value: {x: 0, y: 0, z: -.0032389313, w: .999994755}
        inSlope: {x: -.82401067, y: .195955232, z: -.263583601, w: -.00741004897}
        outSlope: {x: -.82401067, y: .195955232, z: -.263583601, w: -.00741004897}
        tangentMode: 0
      - time: .0166666675
        value: {x: -.0137335118, y: .00326592079, z: -.00763199152, w: .999871254}
        inSlope: {x: -.824780583, y: .192237556, z: -.260707796, w: -.0139331808}
        outSlope: {x: -.824780583, y: .192237556, z: -.260707796, w: -.0139331808}
        tangentMode: 0
      - time: .0333333351
        value: {x: -.0274926871, y: .00640791887, z: -.0119291916, w: .999530315}
        inSlope: {x: -.826203167, y: .18474111, z: -.254876375, w: -.0269383155}
        outSlope: {x: -.826203167, y: .18474111, z: -.254876375, w: -.0269383155}
        tangentMode: 0
      - time: .0500000045
        value: {x: -.04127362, y: .00942395814, z: -.0161278713, w: .99897331}
        inSlope: {x: -.827389956, y: .177124321, z: -.248886615, w: -.0398629904}
        outSlope: {x: -.827389956, y: .177124321, z: -.248886615, w: -.0398629904}
        tangentMode: 0
      - time: .0666666701
        value: {x: -.0550723523, y: .012312063, z: -.0202254131, w: .998201549}
        inSlope: {x: -.828338981, y: .169390813, z: -.242741555, w: -.0526964702}
        outSlope: {x: -.828338981, y: .169390813, z: -.242741555, w: -.0526964702}
        tangentMode: 0
      - time: .0833333358
        value: {x: -.0688849166, y: .0150703182, z: -.0242192559, w: .997216761}
        inSlope: {x: -.829048753, y: .161544502, z: -.236444235, w: -.0654387549}
        outSlope: {x: -.829048753, y: .161544502, z: -.236444235, w: -.0654387549}
        tangentMode: 0
      - time: .100000001
        value: {x: -.0827073082, y: .0176968798, z: -.0281068869, w: .996020257}
        inSlope: {x: -.829517007, y: .15358907, z: -.229997993, w: -.0780880526}
        outSlope: {x: -.829517007, y: .15358907, z: -.229997993, w: -.0780880526}
        tangentMode: 0
      - time: .116666667
        value: {x: -.0965354815, y: .020189954, z: -.0318858549, w: .994613826}
        inSlope: {x: -.829742134, y: .145528376, z: -.223405957, w: -.0906389803}
        outSlope: {x: -.829742134, y: .145528376, z: -.223405957, w: -.0906389803}
        tangentMode: 0
      - time: .13333334
        value: {x: -.110365383, y: .0225478262, z: -.0355537534, w: .992998958}
        inSlope: {x: -.829723835, y: .137366354, z: -.216671601, w: -.103086218}
        outSlope: {x: -.829723835, y: .137366354, z: -.216671601, w: -.103086218}
        tangentMode: 0
      - time: .150000006
        value: {x: -.124192946, y: .0247688331, z: -.0391082428, w: .991177619}
        inSlope: {x: -.829459548, y: .129106909, z: -.209798604, w: -.115420826}
        outSlope: {x: -.829459548, y: .129106909, z: -.209798604, w: -.115420826}
        tangentMode: 0
      - time: .166666672
        value: {x: -.138014033, y: .0268513896, z: -.0425470397, w: .989151597}
        inSlope: {x: -.828947663, y: .120754175, z: -.202789769, w: -.12764813}
        outSlope: {x: -.828947663, y: .120754175, z: -.202789769, w: -.12764813}
        tangentMode: 0
      - time: .183333337
        value: {x: -.151824534, y: .028793972, z: -.0458679013, w: .986922681}
        inSlope: {x: -.828186631, y: .112312093, z: -.195648834, w: -.139764562}
        outSlope: {x: -.828186631, y: .112312093, z: -.195648834, w: -.139764562}
        tangentMode: 0
      - time: .200000003
        value: {x: -.165620252, y: .0305951256, z: -.049068667, w: .984492779}
        inSlope: {x: -.827177227, y: .103784844, z: -.188379943, w: -.151759401}
        outSlope: {x: -.827177227, y: .103784844, z: -.188379943, w: -.151759401}
        tangentMode: 0
      - time: .216666669
        value: {x: -.179397106, y: .0322534665, z: -.052147232, w: .981864035}
        inSlope: {x: -.825916171, y: .0951765776, z: -.180986315, w: -.16362907}
        outSlope: {x: -.825916171, y: .0951765776, z: -.180986315, w: -.16362907}
        tangentMode: 0
      - time: .233333334
        value: {x: -.193150789, y: .0337676778, z: -.0551015437, w: .979038477}
        inSlope: {x: -.824403405, y: .0864916369, z: -.173471212, w: -.175375357}
        outSlope: {x: -.824403405, y: .0864916369, z: -.173471212, w: -.175375357}
        tangentMode: 0
      - time: .25
        value: {x: -.206877217, y: .0351365209, z: -.0579296052, w: .97601819}
        inSlope: {x: -.822639883, y: .0777339637, z: -.165838689, w: -.186996385}
        outSlope: {x: -.822639883, y: .0777339637, z: -.165838689, w: -.186996385}
        tangentMode: 0
      - time: .266666681
        value: {x: -.220572129, y: .036358811, z: -.0606295019, w: .972805262}
        inSlope: {x: -.820621133, y: .0689079016, z: -.158093065, w: -.198481515}
        outSlope: {x: -.820621133, y: .0689079016, z: -.158093065, w: -.198481515}
        tangentMode: 0
      - time: .283333361
        value: {x: -.234231278, y: .0374334529, z: -.0631993786, w: .969402134}
        inSlope: {x: -.81834805, y: .060017731, z: -.15023756, w: -.209832609}
        outSlope: {x: -.81834805, y: .060017731, z: -.15023756, w: -.209832609}
        tangentMode: 0
      - time: .300000042
        value: {x: -.247850418, y: .0383594036, z: -.0656374246, w: .965810835}
        inSlope: {x: -.815820456, y: .0510678776, z: -.142276093, w: -.221049607}
        outSlope: {x: -.815820456, y: .0510678776, z: -.142276093, w: -.221049607}
        tangentMode: 0
      - time: .316666722
        value: {x: -.261425316, y: .0391357169, z: -.067941919, w: .962033808}
        inSlope: {x: -.813040376, y: .0420631506, z: -.134213388, w: -.232116386}
        outSlope: {x: -.813040376, y: .0420631506, z: -.134213388, w: -.232116386}
        tangentMode: 0
      - time: .333333403
        value: {x: -.274951786, y: .0397615097, z: -.0701112077, w: .958073616}
        inSlope: {x: -.810002327, y: .0330070145, z: -.126052544, w: -.243041903}
        outSlope: {x: -.810002327, y: .0330070145, z: -.126052544, w: -.243041903}
        tangentMode: 0
      - time: .350000083
        value: {x: -.288425416, y: .0402359515, z: -.0721436739, w: .953932405}
        inSlope: {x: -.806708574, y: .0239044968, z: -.117797375, w: -.253820807}
        outSlope: {x: -.806708574, y: .0239044968, z: -.117797375, w: -.253820807}
        tangentMode: 0
      - time: .366666764
        value: {x: -.301842093, y: .040558327, z: -.0740377903, w: .949612916}
        inSlope: {x: -.803160012, y: .0147604067, z: -.109452814, w: -.264444113}
        outSlope: {x: -.803160012, y: .0147604067, z: -.109452814, w: -.264444113}
        tangentMode: 0
      - time: .383333445
        value: {x: -.315197438, y: .0407279655, z: -.075792104, w: .945117593}
        inSlope: {x: -.799353957, y: .00557887834, z: -.101023525, w: -.274915457}
        outSlope: {x: -.799353957, y: .00557887834, z: -.101023525, w: -.274915457}
        tangentMode: 0
      - time: .400000125
        value: {x: -.328487247, y: .0407442898, z: -.0774052441, w: .940449059}
        inSlope: {x: -.795294881, y: -.00363640208, z: -.0925119966, w: -.285229445}
        outSlope: {x: -.795294881, y: -.00363640208, z: -.0925119966, w: -.285229445}
        tangentMode: 0
      - time: .416666806
        value: {x: -.341707289, y: .040606752, z: -.0788758397, w: .935609937}
        inSlope: {x: -.790976524, y: -.0128800683, z: -.0839224458, w: -.295389652}
        outSlope: {x: -.790976524, y: -.0128800683, z: -.0839224458, w: -.295389652}
        tangentMode: 0
      - time: .433333486
        value: {x: -.354853153, y: .0403149538, z: -.0802026615, w: .930602729}
        inSlope: {x: -.786403358, y: -.0221476518, z: -.0752609372, w: -.305387139}
        outSlope: {x: -.786403358, y: -.0221476518, z: -.0752609372, w: -.305387139}
        tangentMode: 0
      - time: .450000167
        value: {x: -.367920756, y: .0398684964, z: -.0813845396, w: .925430357}
        inSlope: {x: -.781578064, y: -.0314350165, z: -.0665310174, w: -.315216511}
        outSlope: {x: -.781578064, y: -.0314350165, z: -.0665310174, w: -.315216511}
        tangentMode: 0
      - time: .466666847
        value: {x: -.380905777, y: .039267119, z: -.082420364, w: .920095503}
        inSlope: {x: -.776494384, y: -.0407353453, z: -.0577356182, w: -.324879616}
        outSlope: {x: -.776494384, y: -.0407353453, z: -.0577356182, w: -.324879616}
        tangentMode: 0
      - time: .483333528
        value: {x: -.393803924, y: .0385106504, z: -.0833090618, w: .914601028}
        inSlope: {x: -.771157146, y: -.0500467457, z: -.0488794744, w: -.334373176}
        outSlope: {x: -.771157146, y: -.0500467457, z: -.0488794744, w: -.334373176}
        tangentMode: 0
      - time: .5
        value: {x: -.406610876, y: .0375989042, z: -.0840496719, w: .908949792}
        inSlope: {x: -.76842612, y: -.0547054112, z: -.0444371216, w: -.339078099}
        outSlope: {x: -.76842612, y: -.0547054112, z: -.0444371216, w: -.339078099}
        tangentMode: 0
      m_PreInfinity: 2
      m_PostInfinity: 2
    path: 
  m_CompressedRotationCurves: []
  m_PositionCurves:
  - curve:
      serializedVersion: 2
      m_Curve:
      - time: 0
        value: {x: -524.299988, y: 1, z: -10.3000002}
        inSlope: {x: 28.3999634, y: 152.199997, z: 138.400009}
        outSlope: {x: 28.3999634, y: 152.199997, z: 138.400009}
        tangentMode: 0
      - time: .5
        value: {x: -510.100006, y: 77.0999985, z: 58.9000015}
        inSlope: {x: 28.3999634, y: 152.199997, z: 138.400009}
        outSlope: {x: 28.3999634, y: 152.199997, z: 138.400009}
        tangentMode: 0
      m_PreInfinity: 2
      m_PostInfinity: 2
    path: 
  m_ScaleCurves: []
  m_FloatCurves: []
  m_PPtrCurves: []
  m_SampleRate: 60
  m_WrapMode: 0
  m_Bounds:
    m_Center: {x: 0, y: 0, z: 0}
    m_Extent: {x: 0, y: 0, z: 0}
  m_ClipBindingConstant:
    genericBindings:
    - path: 0
      attribute: 1
      script: {fileID: 0}
      classID: 4
      customType: 0
      isPPtrCurve: 0
    - path: 0
      attribute: 2
      script: {fileID: 0}
      classID: 4
      customType: 0
      isPPtrCurve: 0
    pptrCurveMapping: []
  m_AnimationClipSettings:
    serializedVersion: 2
    m_StartTime: 0
    m_StopTime: .5
    m_OrientationOffsetY: 0
    m_Level: 0
    m_CycleOffset: 0
    m_LoopTime: 0
    m_LoopBlend: 0
    m_LoopBlendOrientation: 0
    m_LoopBlendPositionY: 0
    m_LoopBlendPositionXZ: 0
    m_KeepOriginalOrientation: 0
    m_KeepOriginalPositionY: 1
    m_KeepOriginalPositionXZ: 0
    m_HeightFromFeet: 0
    m_Mirror: 0
  m_EditorCurves:
  - curve:
      serializedVersion: 2
      m_Curve:
      - time: 0
        value: 0
        inSlope: -.82401067
        outSlope: -.82401067
        tangentMode: 0
      - time: .0166666675
        value: -.0137335118
        inSlope: -.824780583
        outSlope: -.824780583
        tangentMode: 0
      - time: .0333333351
        value: -.0274926871
        inSlope: -.826203167
        outSlope: -.826203167
        tangentMode: 0
      - time: .0500000045
        value: -.04127362
        inSlope: -.827389956
        outSlope: -.827389956
        tangentMode: 0
      - time: .0666666701
        value: -.0550723523
        inSlope: -.828338981
        outSlope: -.828338981
        tangentMode: 0
      - time: .0833333358
        value: -.0688849166
        inSlope: -.829048753
        outSlope: -.829048753
        tangentMode: 0
      - time: .100000001
        value: -.0827073082
        inSlope: -.829517007
        outSlope: -.829517007
        tangentMode: 0
      - time: .116666667
        value: -.0965354815
        inSlope: -.829742134
        outSlope: -.829742134
        tangentMode: 0
      - time: .13333334
        value: -.110365383
        inSlope: -.829723835
        outSlope: -.829723835
        tangentMode: 0
      - time: .150000006
        value: -.124192946
        inSlope: -.829459548
        outSlope: -.829459548
        tangentMode: 0
      - time: .166666672
        value: -.138014033
        inSlope: -.828947663
        outSlope: -.828947663
        tangentMode: 0
      - time: .183333337
        value: -.151824534
        inSlope: -.828186631
        outSlope: -.828186631
        tangentMode: 0
      - time: .200000003
        value: -.165620252
        inSlope: -.827177227
        outSlope: -.827177227
        tangentMode: 0
      - time: .216666669
        value: -.179397106
        inSlope: -.825916171
        outSlope: -.825916171
        tangentMode: 0
      - time: .233333334
        value: -.193150789
        inSlope: -.824403405
        outSlope: -.824403405
        tangentMode: 0
      - time: .25
        value: -.206877217
        inSlope: -.822639883
        outSlope: -.822639883
        tangentMode: 0
      - time: .266666681
        value: -.220572129
        inSlope: -.820621133
        outSlope: -.820621133
        tangentMode: 0
      - time: .283333361
        value: -.234231278
        inSlope: -.81834805
        outSlope: -.81834805
        tangentMode: 0
      - time: .300000042
        value: -.247850418
        inSlope: -.815820456
        outSlope: -.815820456
        tangentMode: 0
      - time: .316666722
        value: -.261425316
        inSlope: -.813040376
        outSlope: -.813040376
        tangentMode: 0
      - time: .333333403
        value: -.274951786
        inSlope: -.810002327
        outSlope: -.810002327
        tangentMode: 0
      - time: .350000083
        value: -.288425416
        inSlope: -.806708574
        outSlope: -.806708574
        tangentMode: 0
      - time: .366666764
        value: -.301842093
        inSlope: -.803160012
        outSlope: -.803160012
        tangentMode: 0
      - time: .383333445
        value: -.315197438
        inSlope: -.799353957
        outSlope: -.799353957
        tangentMode: 0
      - time: .400000125
        value: -.328487247
        inSlope: -.795294881
        outSlope: -.795294881
        tangentMode: 0
      - time: .416666806
        value: -.341707289
        inSlope: -.790976524
        outSlope: -.790976524
        tangentMode: 0
      - time: .433333486
        value: -.354853153
        inSlope: -.786403358
        outSlope: -.786403358
        tangentMode: 0
      - time: .450000167
        value: -.367920756
        inSlope: -.781578064
        outSlope: -.781578064
        tangentMode: 0
      - time: .466666847
        value: -.380905777
        inSlope: -.776494384
        outSlope: -.776494384
        tangentMode: 0
      - time: .483333528
        value: -.393803924
        inSlope: -.771157146
        outSlope: -.771157146
        tangentMode: 0
      - time: .5
        value: -.406610876
        inSlope: -.76842612
        outSlope: -.76842612
        tangentMode: 0
      m_PreInfinity: 2
      m_PostInfinity: 2
    attribute: m_LocalRotation.x
    path: 
    classID: 4
    script: {fileID: 0}
  - curve:
      serializedVersion: 2
      m_Curve:
      - time: 0
        value: 0
        inSlope: .195955232
        outSlope: .195955232
        tangentMode: 0
      - time: .0166666675
        value: .00326592079
        inSlope: .192237556
        outSlope: .192237556
        tangentMode: 0
      - time: .0333333351
        value: .00640791887
        inSlope: .18474111
        outSlope: .18474111
        tangentMode: 0
      - time: .0500000045
        value: .00942395814
        inSlope: .177124321
        outSlope: .177124321
        tangentMode: 0
      - time: .0666666701
        value: .012312063
        inSlope: .169390813
        outSlope: .169390813
        tangentMode: 0
      - time: .0833333358
        value: .0150703182
        inSlope: .161544502
        outSlope: .161544502
        tangentMode: 0
      - time: .100000001
        value: .0176968798
        inSlope: .15358907
        outSlope: .15358907
        tangentMode: 0
      - time: .116666667
        value: .020189954
        inSlope: .145528376
        outSlope: .145528376
        tangentMode: 0
      - time: .13333334
        value: .0225478262
        inSlope: .137366354
        outSlope: .137366354
        tangentMode: 0
      - time: .150000006
        value: .0247688331
        inSlope: .129106909
        outSlope: .129106909
        tangentMode: 0
      - time: .166666672
        value: .0268513896
        inSlope: .120754175
        outSlope: .120754175
        tangentMode: 0
      - time: .183333337
        value: .028793972
        inSlope: .112312093
        outSlope: .112312093
        tangentMode: 0
      - time: .200000003
        value: .0305951256
        inSlope: .103784844
        outSlope: .103784844
        tangentMode: 0
      - time: .216666669
        value: .0322534665
        inSlope: .0951765776
        outSlope: .0951765776
        tangentMode: 0
      - time: .233333334
        value: .0337676778
        inSlope: .0864916369
        outSlope: .0864916369
        tangentMode: 0
      - time: .25
        value: .0351365209
        inSlope: .0777339637
        outSlope: .0777339637
        tangentMode: 0
      - time: .266666681
        value: .036358811
        inSlope: .0689079016
        outSlope: .0689079016
        tangentMode: 0
      - time: .283333361
        value: .0374334529
        inSlope: .060017731
        outSlope: .060017731
        tangentMode: 0
      - time: .300000042
        value: .0383594036
        inSlope: .0510678776
        outSlope: .0510678776
        tangentMode: 0
      - time: .316666722
        value: .0391357169
        inSlope: .0420631506
        outSlope: .0420631506
        tangentMode: 0
      - time: .333333403
        value: .0397615097
        inSlope: .0330070145
        outSlope: .0330070145
        tangentMode: 0
      - time: .350000083
        value: .0402359515
        inSlope: .0239044968
        outSlope: .0239044968
        tangentMode: 0
      - time: .366666764
        value: .040558327
        inSlope: .0147604067
        outSlope: .0147604067
        tangentMode: 0
      - time: .383333445
        value: .0407279655
        inSlope: .00557887834
        outSlope: .00557887834
        tangentMode: 0
      - time: .400000125
        value: .0407442898
        inSlope: -.00363640208
        outSlope: -.00363640208
        tangentMode: 0
      - time: .416666806
        value: .040606752
        inSlope: -.0128800683
        outSlope: -.0128800683
        tangentMode: 0
      - time: .433333486
        value: .0403149538
        inSlope: -.0221476518
        outSlope: -.0221476518
        tangentMode: 0
      - time: .450000167
        value: .0398684964
        inSlope: -.0314350165
        outSlope: -.0314350165
        tangentMode: 0
      - time: .466666847
        value: .039267119
        inSlope: -.0407353453
        outSlope: -.0407353453
        tangentMode: 0
      - time: .483333528
        value: .0385106504
        inSlope: -.0500467457
        outSlope: -.0500467457
        tangentMode: 0
      - time: .5
        value: .0375989042
        inSlope: -.0547054112
        outSlope: -.0547054112
        tangentMode: 0
      m_PreInfinity: 2
      m_PostInfinity: 2
    attribute: m_LocalRotation.y
    path: 
    classID: 4
    script: {fileID: 0}
  - curve:
      serializedVersion: 2
      m_Curve:
      - time: 0
        value: -.0032389313
        inSlope: -.263583601
        outSlope: -.263583601
        tangentMode: 0
      - time: .0166666675
        value: -.00763199152
        inSlope: -.260707796
        outSlope: -.260707796
        tangentMode: 0
      - time: .0333333351
        value: -.0119291916
        inSlope: -.254876375
        outSlope: -.254876375
        tangentMode: 0
      - time: .0500000045
        value: -.0161278713
        inSlope: -.248886615
        outSlope: -.248886615
        tangentMode: 0
      - time: .0666666701
        value: -.0202254131
        inSlope: -.242741555
        outSlope: -.242741555
        tangentMode: 0
      - time: .0833333358
        value: -.0242192559
        inSlope: -.236444235
        outSlope: -.236444235
        tangentMode: 0
      - time: .100000001
        value: -.0281068869
        inSlope: -.229997993
        outSlope: -.229997993
        tangentMode: 0
      - time: .116666667
        value: -.0318858549
        inSlope: -.223405957
        outSlope: -.223405957
        tangentMode: 0
      - time: .13333334
        value: -.0355537534
        inSlope: -.216671601
        outSlope: -.216671601
        tangentMode: 0
      - time: .150000006
        value: -.0391082428
        inSlope: -.209798604
        outSlope: -.209798604
        tangentMode: 0
      - time: .166666672
        value: -.0425470397
        inSlope: -.202789769
        outSlope: -.202789769
        tangentMode: 0
      - time: .183333337
        value: -.0458679013
        inSlope: -.195648834
        outSlope: -.195648834
        tangentMode: 0
      - time: .200000003
        value: -.049068667
        inSlope: -.188379943
        outSlope: -.188379943
        tangentMode: 0
      - time: .216666669
        value: -.052147232
        inSlope: -.180986315
        outSlope: -.180986315
        tangentMode: 0
      - time: .233333334
        value: -.0551015437
        inSlope: -.173471212
        outSlope: -.173471212
        tangentMode: 0
      - time: .25
        value: -.0579296052
        inSlope: -.165838689
        outSlope: -.165838689
        tangentMode: 0
      - time: .266666681
        value: -.0606295019
        inSlope: -.158093065
        outSlope: -.158093065
        tangentMode: 0
      - time: .283333361
        value: -.0631993786
        inSlope: -.15023756
        outSlope: -.15023756
        tangentMode: 0
      - time: .300000042
        value: -.0656374246
        inSlope: -.142276093
        outSlope: -.142276093
        tangentMode: 0
      - time: .316666722
        value: -.067941919
        inSlope: -.134213388
        outSlope: -.134213388
        tangentMode: 0
      - time: .333333403
        value: -.0701112077
        inSlope: -.126052544
        outSlope: -.126052544
        tangentMode: 0
      - time: .350000083
        value: -.0721436739
        inSlope: -.117797375
        outSlope: -.117797375
        tangentMode: 0
      - time: .366666764
        value: -.0740377903
        inSlope: -.109452814
        outSlope: -.109452814
        tangentMode: 0
      - time: .383333445
        value: -.075792104
        inSlope: -.101023525
        outSlope: -.101023525
        tangentMode: 0
      - time: .400000125
        value: -.0774052441
        inSlope: -.0925119966
        outSlope: -.0925119966
        tangentMode: 0
      - time: .416666806
        value: -.0788758397
        inSlope: -.0839224458
        outSlope: -.0839224458
        tangentMode: 0
      - time: .433333486
        value: -.0802026615
        inSlope: -.0752609372
        outSlope: -.0752609372
        tangentMode: 0
      - time: .450000167
        value: -.0813845396
        inSlope: -.0665310174
        outSlope: -.0665310174
        tangentMode: 0
      - time: .466666847
        value: -.082420364
        inSlope: -.0577356182
        outSlope: -.0577356182
        tangentMode: 0
      - time: .483333528
        value: -.0833090618
        inSlope: -.0488794744
        outSlope: -.0488794744
        tangentMode: 0
      - time: .5
        value: -.0840496719
        inSlope: -.0444371216
        outSlope: -.0444371216
        tangentMode: 0
      m_PreInfinity: 2
      m_PostInfinity: 2
    attribute: m_LocalRotation.z
    path: 
    classID: 4
    script: {fileID: 0}
  - curve:
      serializedVersion: 2
      m_Curve:
      - time: 0
        value: .999994755
        inSlope: -.00741004897
        outSlope: -.00741004897
        tangentMode: 0
      - time: .0166666675
        value: .999871254
        inSlope: -.0139331808
        outSlope: -.0139331808
        tangentMode: 0
      - time: .0333333351
        value: .999530315
        inSlope: -.0269383155
        outSlope: -.0269383155
        tangentMode: 0
      - time: .0500000045
        value: .99897331
        inSlope: -.0398629904
        outSlope: -.0398629904
        tangentMode: 0
      - time: .0666666701
        value: .998201549
        inSlope: -.0526964702
        outSlope: -.0526964702
        tangentMode: 0
      - time: .0833333358
        value: .997216761
        inSlope: -.0654387549
        outSlope: -.0654387549
        tangentMode: 0
      - time: .100000001
        value: .996020257
        inSlope: -.0780880526
        outSlope: -.0780880526
        tangentMode: 0
      - time: .116666667
        value: .994613826
        inSlope: -.0906389803
        outSlope: -.0906389803
        tangentMode: 0
      - time: .13333334
        value: .992998958
        inSlope: -.103086218
        outSlope: -.103086218
        tangentMode: 0
      - time: .150000006
        value: .991177619
        inSlope: -.115420826
        outSlope: -.115420826
        tangentMode: 0
      - time: .166666672
        value: .989151597
        inSlope: -.12764813
        outSlope: -.12764813
        tangentMode: 0
      - time: .183333337
        value: .986922681
        inSlope: -.139764562
        outSlope: -.139764562
        tangentMode: 0
      - time: .200000003
        value: .984492779
        inSlope: -.151759401
        outSlope: -.151759401
        tangentMode: 0
      - time: .216666669
        value: .981864035
        inSlope: -.16362907
        outSlope: -.16362907
        tangentMode: 0
      - time: .233333334
        value: .979038477
        inSlope: -.175375357
        outSlope: -.175375357
        tangentMode: 0
      - time: .25
        value: .97601819
        inSlope: -.186996385
        outSlope: -.186996385
        tangentMode: 0
      - time: .266666681
        value: .972805262
        inSlope: -.198481515
        outSlope: -.198481515
        tangentMode: 0
      - time: .283333361
        value: .969402134
        inSlope: -.209832609
        outSlope: -.209832609
        tangentMode: 0
      - time: .300000042
        value: .965810835
        inSlope: -.221049607
        outSlope: -.221049607
        tangentMode: 0
      - time: .316666722
        value: .962033808
        inSlope: -.232116386
        outSlope: -.232116386
        tangentMode: 0
      - time: .333333403
        value: .958073616
        inSlope: -.243041903
        outSlope: -.243041903
        tangentMode: 0
      - time: .350000083
        value: .953932405
        inSlope: -.253820807
        outSlope: -.253820807
        tangentMode: 0
      - time: .366666764
        value: .949612916
        inSlope: -.264444113
        outSlope: -.264444113
        tangentMode: 0
      - time: .383333445
        value: .945117593
        inSlope: -.274915457
        outSlope: -.274915457
        tangentMode: 0
      - time: .400000125
        value: .940449059
        inSlope: -.285229445
        outSlope: -.285229445
        tangentMode: 0
      - time: .416666806
        value: .935609937
        inSlope: -.295389652
        outSlope: -.295389652
        tangentMode: 0
      - time: .433333486
        value: .930602729
        inSlope: -.305387139
        outSlope: -.305387139
        tangentMode: 0
      - time: .450000167
        value: .925430357
        inSlope: -.315216511
        outSlope: -.315216511
        tangentMode: 0
      - time: .466666847
        value: .920095503
        inSlope: -.324879616
        outSlope: -.324879616
        tangentMode: 0
      - time: .483333528
        value: .914601028
        inSlope: -.334373176
        outSlope: -.334373176
        tangentMode: 0
      - time: .5
        value: .908949792
        inSlope: -.339078099
        outSlope: -.339078099
        tangentMode: 0
      m_PreInfinity: 2
      m_PostInfinity: 2
    attribute: m_LocalRotation.w
    path: 
    classID: 4
    script: {fileID: 0}
  - curve:
      serializedVersion: 2
      m_Curve:
      - time: 0
        value: -524.299988
        inSlope: 28.3999634
        outSlope: 28.3999634
        tangentMode: 10
      - time: .5
        value: -510.100006
        inSlope: 28.3999634
        outSlope: 28.3999634
        tangentMode: 10
      m_PreInfinity: 2
      m_PostInfinity: 2
    attribute: m_LocalPosition.x
    path: 
    classID: 4
    script: {fileID: 0}
  - curve:
      serializedVersion: 2
      m_Curve:
      - time: 0
        value: 1
        inSlope: 152.199997
        outSlope: 152.199997
        tangentMode: 10
      - time: .5
        value: 77.0999985
        inSlope: 152.199997
        outSlope: 152.199997
        tangentMode: 10
      m_PreInfinity: 2
      m_PostInfinity: 2
    attribute: m_LocalPosition.y
    path: 
    classID: 4
    script: {fileID: 0}
  - curve:
      serializedVersion: 2
      m_Curve:
      - time: 0
        value: -10.3000002
        inSlope: 138.400009
        outSlope: 138.400009
        tangentMode: 10
      - time: .5
        value: 58.9000015
        inSlope: 138.400009
        outSlope: 138.400009
        tangentMode: 10
      m_PreInfinity: 2
      m_PostInfinity: 2
    attribute: m_LocalPosition.z
    path: 
    classID: 4
    script: {fileID: 0}
  m_EulerEditorCurves:
  - curve:
      serializedVersion: 2
      m_Curve:
      - time: 0
        value: 0
        inSlope: -94.2529297
        outSlope: -94.2529297
        tangentMode: 10
      - time: .5
        value: -47.1264648
        inSlope: -94.2529297
        outSlope: -94.2529297
        tangentMode: 10
      m_PreInfinity: 2
      m_PostInfinity: 2
    attribute: localEulerAnglesBaked.x
    path: 
    classID: 4
    script: {fileID: 0}
  - curve:
      serializedVersion: 2
      m_Curve:
      - time: 0
        value: 0
        inSlope: 23.1814575
        outSlope: 23.1814575
        tangentMode: 10
      - time: .5
        value: 11.5907288
        inSlope: 23.1814575
        outSlope: 23.1814575
        tangentMode: 10
      m_PreInfinity: 2
      m_PostInfinity: 2
    attribute: localEulerAnglesBaked.y
    path: 
    classID: 4
    script: {fileID: 0}
  - curve:
      serializedVersion: 2
      m_Curve:
      - time: 0
        value: -.371154785
        inSlope: -30.5279541
        outSlope: -30.5279541
        tangentMode: 10
      - time: .5
        value: -15.6351318
        inSlope: -30.5279541
        outSlope: -30.5279541
        tangentMode: 10
      m_PreInfinity: 2
      m_PostInfinity: 2
    attribute: localEulerAnglesBaked.z
    path: 
    classID: 4
    script: {fileID: 0}
  m_HasGenericRootTransform: 1
  m_HasMotionFloatCurves: 0
  m_GenerateMotionCurves: 0
  m_Events: []
